{
  "project_info": {
    "project_number": "387591696521",
    "firebase_url": "https://idolo-f5c45.firebaseio.com",
    "project_id": "idolo-f5c45",
    "storage_bucket": "idolo-f5c45.appspot.com"
  },
  "client": [
    {
      "client_info": {
        "mobilesdk_app_id": "1:387591696521:android:3be6118b29e60001",
        "android_client_info": {
          "package_name": "com.dashboard.developers.comercio_idolo_java"
        }
      },
      "oauth_client": [
        {
          "client_id": "387591696521-5e5is79u5mrvh2mu5phbem8efamajhf7.apps.googleusercontent.com",
          "client_type": 1,
          "android_info": {
            "package_name": "com.dashboard.developers.comercio_idolo_java",
            "certificate_hash": "52116050faaeb633a4f361afdf4e5d568cd394ef"
          }
        },
        {
          "client_id": "387591696521-j5g42ugqchphvumd4qugdodbhq9k6vr5.apps.googleusercontent.com",
          "client_type": 3
        }
      ],
      "api_key": [
        {
          "current_key": "AIzaSyCrKAuCkUj72RPQ8Y0Q71ocI89b1ihbNNY"
        }
      ],
      "services": {
        "analytics_service": {
          "status": 1
        },
        "appinvite_service": {
          "status": 2,
          "other_platform_oauth_client": [
            {
              "client_id": "387591696521-gq3l3hb79c1plh417ojcfo20c177f8h1.apps.googleusercontent.com",
              "client_type": 2,
              "ios_info": {
                "bundle_id": "ec.com.qbit.Idolo"
              }
            },
            {
              "client_id": "387591696521-j5g42ugqchphvumd4qugdodbhq9k6vr5.apps.googleusercontent.com",
              "client_type": 3
            }
          ]
        },
        "ads_service": {
          "status": 2
        }
      }
    }
  ],
  "configuration_version": "1"
}